{
    "_id": "3gN09dOT2hMwGcK2",
    "data": {
        "boosts": {
            "0": {
                "value": [
                    "con",
                    "int"
                ]
            },
            "1": {
                "value": [
                    "cha",
                    "con",
                    "dex",
                    "int",
                    "str",
                    "wis"
                ]
            }
        },
        "description": {
            "chat": "",
            "unidentified": "",
            "value": "<p>You grew up in the kitchens of a tavern or other dining establishment and excelled there, becoming an exceptional cook. Baking, cooking, a little brewing on the side-you've spent lots of time out of sight. It's about time you went out into the world to catch some sights for yourself.</p>\n<p>Choose two ability boosts. One must be to <strong>Constitution</strong> or <strong>Intelligence</strong>, and one is a free ability boost.</p>\n<p>You're trained in the Survival skill and the Cooking Lore skill. You gain the @Compendium[pf2e.feats-srd.Seasoned]{Seasoned} skill feat.</p>"
        },
        "items": {
            "diizj": {
                "id": "1Eceqc6zbMj2x0q9",
                "img": "systems/pf2e/icons/features/feats/feats.webp",
                "level": "1",
                "name": "Seasoned",
                "pack": "pf2e.feats-srd"
            }
        },
        "rules": [],
        "source": {
            "value": ""
        },
        "trainedLore": "Cooking Lore",
        "trainedSkills": {
            "value": [
                "sur"
            ]
        },
        "traits": {
            "custom": "",
            "rarity": {
                "value": "common"
            },
            "value": []
        },
        "usage": {
            "value": "held-in-one-hand"
        }
    },
    "effects": [],
    "flags": {},
    "img": "systems/pf2e/icons/default-icons/mystery-man.svg",
    "name": "Cook",
    "permission": {
        "default": 0
    },
    "type": "background"
}
