{
    "_id": "8UEKgUkagUDixkL2",
    "data": {
        "boosts": {
            "0": {
                "value": [
                    "cha",
                    "int"
                ]
            },
            "1": {
                "value": [
                    "cha",
                    "con",
                    "dex",
                    "int",
                    "str",
                    "wis"
                ]
            }
        },
        "description": {
            "chat": "",
            "unidentified": "",
            "value": "<p><strong>Prerequisite</strong>: Region - Broken Lands</p>\n<hr />\n<p>You grew up among the northern houses of Brevoy in old Issia. Steeped in the cultural legacy of pirates and smugglers, you rely on your cleverness and charm as you make your way throughout the world.</p>\n<p>Choose two ability boosts. One must be to <strong>Intelligence</strong> or <strong>Charisma</strong>, and one is a free ability boost.</p>\n<p>You're trained in the Deception skill and the Underworld Lore skill. You gain the @Compendium[pf2e.feats-srd.Charming Liar]{Charming Liar} skill feat.</p>"
        },
        "items": {
            "6onml": {
                "id": "B6HbYsLBWb1RR6Fx",
                "img": "systems/pf2e/icons/features/feats/feats.webp",
                "level": "1",
                "name": "Charming Liar",
                "pack": "pf2e.feats-srd"
            }
        },
        "rules": [],
        "source": {
            "value": ""
        },
        "trainedLore": "Underworld Lore",
        "trainedSkills": {
            "value": [
                "dec"
            ]
        },
        "traits": {
            "custom": "",
            "rarity": {
                "value": "common"
            },
            "value": []
        }
    },
    "effects": [],
    "flags": {},
    "img": "systems/pf2e/icons/default-icons/mystery-man.svg",
    "name": "Issian Partisan",
    "permission": {
        "default": 0
    },
    "type": "background"
}
