{
    "_id": "qzgi4PCcvpH0QPVj",
    "data": {
        "baseItem": null,
        "brokenThreshold": {
            "value": 0
        },
        "bulkCapacity": {
            "value": ""
        },
        "collapsed": {
            "value": false
        },
        "containerId": {
            "value": ""
        },
        "description": {
            "chat": "",
            "unidentified": "",
            "value": "<p>This glass ring contains a swirling cloud of grayish smoke. When you invest the ring, the smoke becomes as transparent as the glass encapsulating it, and you can see clearly into the Ethereal Plane with a range of 60 feet. Whether or not you have invested the ring, you are also visible to creatures in the Ethereal Plane within the same range. Although you can see these creatures and they can see you, you can't affect each other except with abilities that cross between the Ethereal Plane and the Material Plane.</p>"
        },
        "equipped": {
            "value": false
        },
        "equippedBulk": {
            "value": ""
        },
        "hardness": {
            "value": 0
        },
        "hp": {
            "value": 0
        },
        "identification": {
            "misidentified": {},
            "status": "identified",
            "unidentified": {
                "data": {
                    "description": {
                        "value": ""
                    }
                },
                "img": "",
                "name": ""
            }
        },
        "invested": {
            "value": false
        },
        "level": {
            "value": "7"
        },
        "maxHp": {
            "value": 0
        },
        "negateBulk": {
            "value": "0"
        },
        "preciousMaterial": {
            "value": ""
        },
        "preciousMaterialGrade": {
            "value": ""
        },
        "price": {
            "value": "325 gp"
        },
        "quantity": {
            "value": "1"
        },
        "rules": [],
        "size": {
            "value": "med"
        },
        "source": {
            "value": ""
        },
        "stackGroup": {
            "value": ""
        },
        "traits": {
            "custom": "",
            "rarity": {
                "value": "uncommon"
            },
            "value": [
                "divination",
                "invested",
                "magical",
                "revelation"
            ]
        },
        "usage": {
            "value": "worn"
        },
        "weight": {
            "value": "-"
        }
    },
    "effects": [],
    "flags": {},
    "img": "systems/pf2e/icons/equipment/worn-items/other-worn-items/ethersight-ring.webp",
    "name": "Ethersight Ring",
    "permission": {
        "default": 0
    },
    "type": "equipment"
}
