{
    "_id": "IxuDS3POB6EH8TVN",
    "data": {
        "armor": {
            "value": 1
        },
        "armorType": {
            "value": "shield"
        },
        "baseItem": null,
        "brokenThreshold": {
            "value": 3
        },
        "bulkCapacity": {
            "value": ""
        },
        "check": {
            "value": ""
        },
        "collapsed": {
            "value": false
        },
        "containerId": {
            "value": ""
        },
        "description": {
            "chat": "",
            "unidentified": "",
            "value": "<p>A glamorous buckler (Hardness 3, HP 6, BT 3) is lavishly decorated with gilding and inset gemstones that glitter in the light. While you have it raised, the glamorous buckler grants you a +1 item bonus to Deception checks to Feint.</p>\n<p>@Compendium[pf2e.equipment-effects.Effect: Glamorous Buckler]{Effect: Glamorous Buckler}</p>\n<hr />\n<p><strong>Activate</strong> <span class=\"pf2-icon\">F</span> envision;</p>\n<p><strong>Frequency</strong> once per day;</p>\n<p><strong>Trigger</strong> You Feint;</p>\n<p><strong>Requirements</strong> You have the glamorous buckler raised;</p>\n<p><strong>Effect</strong> As you Feint, the glamorous buckler sparkles mightily. On a successful Feint, the target is dazzled for 1 round.</p>\n<hr />\n<table style=\"height: 32px;\" border=\"1\">\n<tbody>\n<tr style=\"height: 15px;\">\n<td style=\"height: 15px; width: 115px;\">Hardness</td>\n<td style=\"height: 15px; width: 115px;\">HP</td>\n<td style=\"height: 15px; width: 116px;\">BT</td>\n</tr>\n<tr style=\"height: 17px;\">\n<td style=\"height: 17px; width: 115px;\">3</td>\n<td style=\"height: 17px; width: 115px;\">6</td>\n<td style=\"height: 17px; width: 116px;\">3</td>\n</tr>\n</tbody>\n</table>"
        },
        "dex": {
            "value": ""
        },
        "equipped": {
            "value": false
        },
        "equippedBulk": {
            "value": ""
        },
        "group": {
            "value": ""
        },
        "hardness": {
            "value": 3
        },
        "hp": {
            "value": 6
        },
        "identification": {
            "misidentified": {},
            "status": "identified",
            "unidentified": {
                "data": {
                    "description": {
                        "value": ""
                    }
                },
                "img": "",
                "name": ""
            }
        },
        "invested": {
            "value": false
        },
        "level": {
            "value": 2
        },
        "maxHp": {
            "value": 6
        },
        "negateBulk": {
            "value": "0"
        },
        "potency": {},
        "potencyRune": {
            "value": 0
        },
        "preciousMaterial": {
            "value": ""
        },
        "preciousMaterialGrade": {
            "value": ""
        },
        "price": {
            "value": "35 gp"
        },
        "propertyRune1": {
            "value": ""
        },
        "propertyRune2": {
            "value": ""
        },
        "propertyRune3": {
            "value": ""
        },
        "propertyRune4": {
            "value": ""
        },
        "quantity": {
            "value": 1
        },
        "resiliencyRune": {
            "value": ""
        },
        "resilient": {},
        "rules": [],
        "size": {
            "value": "med"
        },
        "source": {
            "value": ""
        },
        "speed": {
            "value": ""
        },
        "stackGroup": {
            "value": ""
        },
        "strength": {
            "value": ""
        },
        "traits": {
            "custom": "",
            "rarity": {
                "value": "common"
            },
            "value": [
                "illusion",
                "magical"
            ]
        },
        "usage": {
            "value": "held-in-one-hand"
        },
        "weight": {
            "value": "L"
        }
    },
    "effects": [],
    "flags": {},
    "img": "systems/pf2e/icons/equipment/shields/specific-shields/glamorous-buckler.webp",
    "name": "Glamorous Buckler",
    "permission": {
        "default": 0
    },
    "type": "armor"
}
