{
    "_id": "nI9shR1EG3P09I8r",
    "data": {
        "MAP": {
            "value": ""
        },
        "ability": {
            "value": "str"
        },
        "baseItem": "staff",
        "bonus": {
            "value": 3
        },
        "bonusDamage": {
            "value": 0
        },
        "brokenThreshold": {
            "value": 0
        },
        "bulkCapacity": {
            "value": ""
        },
        "collapsed": {
            "value": false
        },
        "containerId": {
            "value": ""
        },
        "damage": {
            "damageType": "bludgeoning",
            "dice": 1,
            "die": "d4",
            "value": ""
        },
        "description": {
            "chat": "",
            "unidentified": "",
            "value": "<p>Sigils and runes of ancient and powerful magic cover the iron cladding on this long wooden staff. A staff of the magi is a +3 major striking staff, and when wielding it you gain a +1 circumstance bonus to saving throws against spells.</p>\n<p>Voluntarily destroying a staff of the magi unleashes a truly devastating wave of arcane energy that surges out, dissipating with distance. When wielding the staff, you can break it using an Interact action. This releases a 30-foot-burst magical explosion centered on the staff. This deals [[/r 2d10]] force damage per charge remaining in the staff (DC 40 basic Reflex save), You automatically critically fail your save. The explosion continues to echo beyond the initial blast zone, dealing half as much damage to creatures beyond 30 feet but within a 60-foot burst. A creature reduced to 0 Hit Points by this damage dies instantly; this is a death effect.<br /><br /><strong>Activate</strong> Cast a Spell</p>\n<p><strong>Effect</strong> You expend a number of charges from the staff to cast a spell from its list.</p>\n<ul>\n<li><strong>Cantrip</strong> @Compendium[pf2e.spells-srd.Detect Magic]{Detect Magic}, @Compendium[pf2e.spells-srd.Light]{Light}, @Compendium[pf2e.spells-srd.Mage Hand]{Mage Hand}, @Compendium[pf2e.spells-srd.Telekinetic Projectile]{Telekinetic Projectile}</li>\n<li><strong>1st</strong> @Compendium[pf2e.spells-srd.Lock]{Lock}</li>\n<li><strong>2nd</strong> @Compendium[pf2e.spells-srd.Enlarge]{Enlarge}, @Compendium[pf2e.spells-srd.Glitterdust]{Glitterdust}, @Compendium[pf2e.spells-srd.Invisibility]{Invisibility}, @Compendium[pf2e.spells-srd.Knock]{Knock}, @Compendium[pf2e.spells-srd.Telekinetic Maneuver]{Telekinetic Maneuver}, @Compendium[pf2e.spells-srd.Web]{Web}</li>\n<li><strong>3rd</strong> @Compendium[pf2e.spells-srd.Dispel Magic]{Dispel Magic}, @Compendium[pf2e.spells-srd.Fireball]{Fireball}, @Compendium[pf2e.spells-srd.Lightning Bolt]{Lightning Bolt}</li>\n<li><strong>4th</strong> @Compendium[pf2e.spells-srd.Invisibility]{Invisibility}, @Compendium[pf2e.spells-srd.Enlarge]{Enlarge}, @Compendium[pf2e.spells-srd.Fireball]{Fireball}, @Compendium[pf2e.spells-srd.Wall of Fire]{Wall of Fire}, @Compendium[pf2e.spells-srd.Web]{Web}</li>\n<li><strong>5th</strong> @Compendium[pf2e.spells-srd.Cone of Cold]{Cone of Cold}, @Compendium[pf2e.spells-srd.Passwall]{Passwall}, @Compendium[pf2e.spells-srd.Telekinetic Haul]{Telekinetic Haul}</li>\n<li><strong>6th</strong> @Compendium[pf2e.spells-srd.Disintegrate]{Disintegrate}, @Compendium[pf2e.spells-srd.Dispel Magic]{Dispel Magic}, @Compendium[pf2e.spells-srd.Fireball]{Fireball}, @Compendium[pf2e.spells-srd.Lightning Bolt]{Lightning Bolt}</li>\n<li><strong>7th</strong> @Compendium[pf2e.spells-srd.Cone of Cold]{Cone of Cold}, @Compendium[pf2e.spells-srd.Passwall]{Passwall}, @Compendium[pf2e.spells-srd.Plane Shift]{Plane Shift}, @Compendium[pf2e.spells-srd.Wall of Fire]{Wall of Fire}</li>\n<li><strong>8th</strong> @Compendium[pf2e.spells-srd.Fireball]{Fireball}, @Compendium[pf2e.spells-srd.Mage Armor]{Mage Armor}</li>\n<li><strong>9th</strong> @Compendium[pf2e.spells-srd.Dispel Magic]{Dispel Magic}, @Compendium[pf2e.spells-srd.Meteor Swarm]{Meteor Swarm}, @Compendium[pf2e.spells-srd.Summon Dragon]{Summon Dragon}</li>\n</ul>\n<p><strong>Craft Requirements</strong> Supply one casting of all listed levels of all listed spells.</p>\n<hr />\n<p>Automatically applied effects:</p>\n<p>+1 circumstance bonus to saving throws against spells</p>"
        },
        "equipped": {
            "value": false
        },
        "equippedBulk": {
            "value": ""
        },
        "group": {
            "value": "club"
        },
        "hands": {
            "value": ""
        },
        "hardness": {
            "value": 0
        },
        "hp": {
            "value": 0
        },
        "identification": {
            "misidentified": {},
            "status": "identified",
            "unidentified": {
                "data": {
                    "description": {
                        "value": ""
                    }
                },
                "img": "",
                "name": ""
            }
        },
        "invested": {
            "value": false
        },
        "level": {
            "value": 20
        },
        "maxHp": {
            "value": 0
        },
        "negateBulk": {
            "value": "0"
        },
        "potencyRune": {
            "value": 3
        },
        "preciousMaterial": {
            "value": ""
        },
        "preciousMaterialGrade": {
            "value": ""
        },
        "price": {
            "value": "90,000 gp"
        },
        "property1": {
            "critDamage": "",
            "critDamageType": "",
            "critDice": null,
            "critDie": "",
            "criticalConditionType": "",
            "criticalConditionValue": null,
            "damageType": "",
            "dice": null,
            "die": "",
            "strikeConditionType": "",
            "strikeConditionValue": null,
            "value": ""
        },
        "propertyRune1": {
            "value": ""
        },
        "propertyRune2": {
            "value": ""
        },
        "propertyRune3": {
            "value": ""
        },
        "propertyRune4": {
            "value": ""
        },
        "quantity": {
            "value": 1
        },
        "range": {
            "value": "melee"
        },
        "reload": {
            "value": ""
        },
        "rules": [
            {
                "key": "PF2E.RuleElement.FlatModifier",
                "label": "Staff of the Magi (vs. spells)",
                "predicate": {
                    "all": [
                        "spells"
                    ]
                },
                "selector": "saving-throw",
                "type": "circumstance",
                "value": 1
            }
        ],
        "size": {
            "value": "med"
        },
        "source": {
            "value": ""
        },
        "splashDamage": {
            "value": null
        },
        "stackGroup": {
            "value": ""
        },
        "strikingRune": {
            "value": "majorStriking"
        },
        "traits": {
            "custom": "",
            "rarity": {
                "value": "rare"
            },
            "value": [
                "evocation",
                "magical",
                "staff",
                "two-hand-d8"
            ]
        },
        "usage": {
            "value": "held-in-one-hand"
        },
        "weaponType": {
            "value": "simple"
        },
        "weight": {
            "value": "1"
        }
    },
    "effects": [],
    "flags": {},
    "img": "systems/pf2e/icons/equipment/staves/staff-of-the-magi.webp",
    "name": "Staff of the Magi",
    "permission": {
        "default": 0
    },
    "type": "weapon"
}
