{
    "_id": "fQCiK3uVBuWQmMP6",
    "data": {
        "actionCategory": {
            "value": ""
        },
        "actionType": {
            "value": "passive"
        },
        "actions": {
            "value": ""
        },
        "description": {
            "value": "<p>A divine warden always wields its patron deity’s favored weapon. If the weapon is a ranged weapon, the divine warden automatically generates new ammunition with each attack. For a divine warden of 4th level or higher, the deity’s favored weapon gains the effects of a @Compendium[pf2e.equipment-srd.Striking]{Striking} rune while the divine warden wields it; at 12th level, these effects are of a @Compendium[pf2e.equipment-srd.Striking (Greater)]{Greater Striking} rune, and at 19th level, they’re instead of a @Compendium[pf2e.equipment-srd.Striking (Major)]{Major Striking} rune.</p>"
        },
        "requirements": {
            "value": ""
        },
        "rules": [],
        "source": {
            "value": ""
        },
        "traits": {
            "custom": "",
            "rarity": {
                "value": "common"
            },
            "value": []
        },
        "trigger": {
            "value": ""
        },
        "weapon": {
            "value": ""
        }
    },
    "effects": [],
    "flags": {},
    "img": "systems/pf2e/icons/default-icons/mystery-man.svg",
    "name": "Faithful Weapon",
    "permission": {
        "default": 0
    },
    "type": "action"
}
