{
    "_id": "ge56Lu1xXVFYUnLP",
    "data": {
        "actionCategory": {
            "value": ""
        },
        "actionType": {
            "value": "action"
        },
        "actions": {
            "value": "1"
        },
        "description": {
            "chat": "",
            "unidentified": "",
            "value": "<p><strong>Requirements</strong> You have at least one hand free. Your target can't be more than one size larger than you</p>\n<hr />\n<p>You try to knock a creature to the ground. Attempt an <span data-pf2-action=\"trip\" data-pf2-glyph=\"A\">Athletics</span> check against the target's Reflex DC.</p>\n<hr />\n<p><strong>Critical Success</strong> The target falls and lands @Compendium[pf2e.conditionitems.Prone]{Prone} and takes <a class=\"inline-roll roll\" title=\"bludgeoning\" data-mode=\"roll\" data-flavor=\"bludgeoning\" data-formula=\"1d6\">1d6</a> bludgeoning damage.</p>\n<p><strong>Success</strong> The target falls and lands prone.</p>\n<p><strong>Critical Failure</strong> You lose your balance and fall and land prone.</p>"
        },
        "requirements": {
            "value": ""
        },
        "rules": [],
        "source": {
            "value": ""
        },
        "traits": {
            "custom": "",
            "rarity": {
                "value": "common"
            },
            "value": [
                "attack",
                "skill"
            ]
        },
        "trigger": {
            "value": ""
        },
        "weapon": {
            "value": ""
        }
    },
    "effects": [],
    "flags": {},
    "img": "systems/pf2e/icons/actions/OneAction.webp",
    "name": "Trip",
    "permission": {
        "default": 0
    },
    "type": "action"
}
