{
    "_id": "W3BCLbX6j1IqL0uB",
    "data": {
        "description": {
            "chat": "",
            "unidentified": "",
            "value": "<p>Granted by @Compendium[pf2e.equipment-srd.Slippers of Spider Climbing]{Slippers of Spider Climbing}</p>\n<hr />\n<p>Automatically applied effects:</p>\n<ul>\n<li>Gain a 20-foot climb Speed</li>\n</ul>"
        },
        "duration": {
            "expiry": "turn-start",
            "sustained": false,
            "unit": "minutes",
            "value": 1
        },
        "level": {
            "value": 7
        },
        "rules": [
            {
                "key": "PF2E.RuleElement.BaseSpeed",
                "selector": "climb",
                "value": 20
            },
            {
                "key": "PF2E.RuleElement.TokenEffectIcon"
            }
        ],
        "source": {
            "value": ""
        },
        "start": {
            "initiative": null,
            "value": 0
        },
        "traits": {
            "custom": "",
            "rarity": {
                "value": "common"
            },
            "value": []
        }
    },
    "effects": [],
    "flags": {},
    "img": "systems/pf2e/icons/equipment/worn-items/other-worn-items/slippers-of-spider-climbing.webp",
    "name": "Effect: Slippers of Spider Climbing",
    "permission": {
        "default": 0
    },
    "type": "effect"
}
