{
    "_id": "2fiQzoEKu6YUnrU9",
    "data": {
        "description": {
            "chat": "",
            "unidentified": "",
            "value": "<p>In an encounter, if you don't Command your familiar, it still gains 1 action each round. Typically, you still decide how it spends that action, but, the GM might determine that your familiar chooses its own tactics rather than performing your preferred action.</p>"
        },
        "level": {
            "value": 1
        },
        "rules": [],
        "source": {
            "value": ""
        },
        "traits": {
            "custom": "",
            "rarity": {
                "value": "common"
            },
            "value": []
        }
    },
    "effects": [],
    "flags": {},
    "img": "systems/pf2e/icons/default-icons/mystery-man.svg",
    "name": "Independent",
    "permission": {
        "default": 0
    },
    "type": "effect"
}
