{
    "_id": "YNk0BekymS3bBvCT",
    "data": {
        "actionCategory": {
            "value": ""
        },
        "actionType": {
            "value": "passive"
        },
        "actions": {
            "value": ""
        },
        "description": {
            "chat": "",
            "unidentified": "",
            "value": "<p>The magic of your ancestry and bloodline are one and the same. Add any innate spells you have from a heritage or an ancestry feat to your spell repertoire, meaning you can cast them using your spell slots.</p>"
        },
        "featType": {
            "value": "class"
        },
        "level": {
            "value": "10"
        },
        "prerequisites": {
            "value": [
                {
                    "value": "Ancestral Blood Magic"
                }
            ]
        },
        "rules": [],
        "source": {
            "value": ""
        },
        "traits": {
            "custom": "",
            "rarity": {
                "value": "common"
            },
            "value": [
                "sorcerer"
            ]
        }
    },
    "effects": [],
    "flags": {},
    "img": "systems/pf2e/icons/features/feats/feats.webp",
    "name": "Ancestral Mage",
    "permission": {
        "default": 0
    },
    "type": "feat"
}
