{
    "_id": "c6CS97Zs0DPmInaI",
    "data": {
        "actionCategory": {
            "value": ""
        },
        "actionType": {
            "value": "passive"
        },
        "actions": {
            "value": ""
        },
        "description": {
            "chat": "",
            "unidentified": "",
            "value": "<p>You can procure information with confidence. Whenever you @Compendium[pf2e.actionspf2e.Recall Knowledge (Arcana)]{Recall Knowledge} using any skill (including Bardic Lore), you can forgo rolling your check to instead receive a result of 10 + your proficiency bonus (don't apply any other bonuses, penalties, or modifiers).</p>\n<p>As long as you are an expert in a skill, you meet the prerequisites for the @Compendium[pf2e.feats-srd.Automatic Knowledge]{Automatic Knowledge} skill feat in that skill, even if you don't have @Compendium[pf2e.feats-srd.Assurance]{Assurance} in that skill.</p>"
        },
        "featType": {
            "value": "class"
        },
        "level": {
            "value": "6"
        },
        "prerequisites": {
            "value": [
                {
                    "value": "enigma muse"
                }
            ]
        },
        "rules": [],
        "source": {
            "value": ""
        },
        "traits": {
            "custom": "",
            "rarity": {
                "value": "common"
            },
            "value": [
                "bard"
            ]
        }
    },
    "effects": [],
    "flags": {},
    "img": "systems/pf2e/icons/features/feats/feats.webp",
    "name": "Assured Knowledge",
    "permission": {
        "default": 0
    },
    "type": "feat"
}
