{
    "_id": "E7eceezD3NDmBVBb",
    "data": {
        "actionCategory": {
            "value": ""
        },
        "actionType": {
            "value": "passive"
        },
        "actions": {
            "value": ""
        },
        "description": {
            "chat": "",
            "unidentified": "",
            "value": "<p>You excel at watching your allies' backs and helping them watch yours. As long as you and an ally are adjacent to each other, neither of you can become @Compendium[pf2e.conditionitems.Flat-Footed]{Flat-Footed} due to flanking unless both of you are flanked. If you're adjacent to more than one ally, all eligible allies can benefit at a given time.</p>\n<p>The benefit is negated for everyone if at least you and any one eligible ally are flanked, but not if your allies are flanked and you aren't.</p>"
        },
        "featType": {
            "value": "archetype"
        },
        "level": {
            "value": "8"
        },
        "prerequisites": {
            "value": [
                {
                    "value": "Marshal Dedication"
                }
            ]
        },
        "rules": [],
        "source": {
            "value": ""
        },
        "traits": {
            "custom": "",
            "rarity": {
                "value": "common"
            },
            "value": [
                "archetype"
            ]
        }
    },
    "effects": [],
    "flags": {},
    "img": "systems/pf2e/icons/features/feats/feats.webp",
    "name": "Back To Back",
    "permission": {
        "default": 0
    },
    "type": "feat"
}
