{
    "_id": "v62QzTwHOT3t86cL",
    "data": {
        "actionCategory": {
            "value": ""
        },
        "actionType": {
            "value": "passive"
        },
        "actions": {
            "value": ""
        },
        "description": {
            "chat": "",
            "unidentified": "",
            "value": "<p>You can find ways to craft just about anything, despite restrictions. As long as you have the appropriate Crafting skill feat (such as Magical Crafting for magic items) and meet the item's level and proficiency requirement, you ignore just about any other requirement, such as being of a specific ancestry or providing spells. The only exceptions are requirements that add to the item's cost, including castings of spells that themselves have a cost, and requirements of special items such as the philosopher's stone that have exclusive means of access and Crafting. The GM decides whether you can ignore a requirement.</p>"
        },
        "featType": {
            "value": "skill"
        },
        "level": {
            "value": 15
        },
        "prerequisites": {
            "value": [
                {
                    "value": "legendary in Crafting"
                }
            ]
        },
        "rules": [],
        "source": {
            "value": ""
        },
        "traits": {
            "custom": "",
            "rarity": {
                "value": "common"
            },
            "value": [
                "general",
                "skill"
            ]
        }
    },
    "effects": [],
    "flags": {},
    "img": "systems/pf2e/icons/features/feats/feats.webp",
    "name": "Craft Anything",
    "permission": {
        "default": 0
    },
    "type": "feat"
}
