{
    "_id": "emRfSVvU8ZAH9UdK",
    "data": {
        "actionCategory": {
            "value": ""
        },
        "actionType": {
            "value": "passive"
        },
        "actions": {
            "value": ""
        },
        "description": {
            "chat": "",
            "unidentified": "",
            "value": "<p>Your legacy grants you great destructive power. When you Cast a Spell from your spell slots, if the spell deals damage and doesn't have a duration, you gain a status bonus to that spell's damage equal to the spell's level.</p>"
        },
        "featType": {
            "value": "class"
        },
        "level": {
            "value": 1
        },
        "prerequisites": {
            "value": []
        },
        "rules": [],
        "source": {
            "value": ""
        },
        "traits": {
            "custom": "",
            "rarity": {
                "value": "common"
            },
            "value": [
                "sorcerer"
            ]
        }
    },
    "effects": [],
    "flags": {},
    "img": "systems/pf2e/icons/features/feats/feats.webp",
    "name": "Dangerous Sorcery",
    "permission": {
        "default": 0
    },
    "type": "feat"
}
