{
    "_id": "P13ZhZcR67Ev0vrS",
    "data": {
        "actionCategory": {
            "value": ""
        },
        "actionType": {
            "value": "action"
        },
        "actions": {
            "value": "2"
        },
        "description": {
            "chat": "",
            "unidentified": "",
            "value": "<p>Make an unarmed Strike. If it deals damage to a living creature, you block that creature's inner life force.</p>\n<p>The creature takes [[/r 2d6]] @Compendium[pf2e.conditionitems.Persistent Damage]{Persistent Negative Damage} and is @Compendium[pf2e.conditionitems.Enfeebled]{Enfeebled 1} until the persistent damage ends.</p>\n<p>If you're 18th level or higher, this deals [[/r 3d6]] @Compendium[pf2e.conditionitems.Persistent Damage]{Persistent Negative Damage} instead.</p>"
        },
        "featType": {
            "value": "class"
        },
        "level": {
            "value": 12
        },
        "location": "",
        "prerequisites": {
            "value": []
        },
        "rules": [],
        "source": {
            "value": ""
        },
        "traits": {
            "custom": "",
            "rarity": {
                "value": "common"
            },
            "value": [
                "monk",
                "negative"
            ]
        }
    },
    "effects": [],
    "flags": {},
    "img": "systems/pf2e/icons/features/feats/feats.webp",
    "name": "Disrupt Ki",
    "permission": {
        "default": 0
    },
    "type": "feat"
}
