{
    "_id": "ovMIxhiStlPE7tty",
    "data": {
        "actionCategory": {
            "value": ""
        },
        "actionType": {
            "value": "passive"
        },
        "actions": {
            "value": ""
        },
        "description": {
            "chat": "",
            "unidentified": "",
            "value": "<p>You've studied your celestial heritage with the intent of better defending yourself, and you've found that your techniques are equally powerful against celestials, fiends, and other divine entities. You gain a +1 circumstance bonus to all saving throws against divine effects.</p>"
        },
        "featType": {
            "value": "ancestry"
        },
        "level": {
            "value": "9"
        },
        "prerequisites": {
            "value": []
        },
        "rules": [],
        "source": {
            "value": ""
        },
        "traits": {
            "custom": "",
            "rarity": {
                "value": "common"
            },
            "value": [
                "aasimar"
            ]
        }
    },
    "effects": [],
    "flags": {},
    "img": "systems/pf2e/icons/features/feats/feats.webp",
    "name": "Divine Countermeasures",
    "permission": {
        "default": 0
    },
    "type": "feat"
}
