{
    "_id": "04Smj4ZsEBD8WIXv",
    "data": {
        "actionCategory": {
            "value": ""
        },
        "actionType": {
            "value": "action"
        },
        "actions": {
            "value": "2"
        },
        "description": {
            "chat": "",
            "unidentified": "",
            "value": "<p><strong>Requirements</strong> You are wielding two one-handed melee weapons, each in a different hand.</p>\n<hr />\n<p>You attack as you dash among foes. @Compendium[pf2e.actionspf2e.Stride]{Stride} up to your Speed. At any point during this movement, you can @Compendium[pf2e.actionspf2e.Strike]{Strike} once with each of the two required weapons. These Strikes can be against the same or different targets, as you see fit.</p>"
        },
        "featType": {
            "value": "archetype"
        },
        "level": {
            "value": "10"
        },
        "prerequisites": {
            "value": [
                {
                    "value": "Dual-Weapon Warrior Dedication"
                }
            ]
        },
        "rules": [],
        "source": {
            "value": ""
        },
        "traits": {
            "custom": "",
            "rarity": {
                "value": "common"
            },
            "value": [
                "archetype"
            ]
        }
    },
    "effects": [],
    "flags": {},
    "img": "systems/pf2e/icons/features/feats/feats.webp",
    "name": "Dual-Weapon Blitz",
    "permission": {
        "default": 0
    },
    "type": "feat"
}
