{
    "_id": "Hwvrive2vBIqZUcE",
    "data": {
        "actionCategory": {
            "value": ""
        },
        "actionType": {
            "value": "passive"
        },
        "actions": {
            "value": ""
        },
        "description": {
            "chat": "",
            "unidentified": "",
            "value": "<p>Your familiar is the heart and soul of your adventuring team.</p>\n<p>When selecting master abilities, you can choose an ally to benefit from any specific master ability.</p>\n<p>Each master ability can benefit only a single character, and you can select a specific master ability only once unless the ability says otherwise.</p>"
        },
        "featType": {
            "value": "archetype"
        },
        "level": {
            "value": "4"
        },
        "prerequisites": {
            "value": [
                {
                    "value": "Familiar Master Dedication"
                }
            ]
        },
        "rules": [],
        "source": {
            "value": ""
        },
        "traits": {
            "custom": "",
            "rarity": {
                "value": "common"
            },
            "value": [
                "archetype"
            ]
        }
    },
    "effects": [],
    "flags": {},
    "img": "systems/pf2e/icons/features/feats/feats.webp",
    "name": "Familiar Mascot",
    "permission": {
        "default": 0
    },
    "type": "feat"
}
