{
    "_id": "3w2SktSOZdG8f6Qr",
    "data": {
        "actionCategory": {
            "value": ""
        },
        "actionType": {
            "value": "passive"
        },
        "actions": {
            "value": ""
        },
        "description": {
            "chat": "",
            "unidentified": "",
            "value": "<p>Your songs overwhelm the target with unbearable emotion, potentially striking them dead on the spot. You learn the @Compendium[pf2e.spells-srd.Fatal Aria]{Fatal Aria} composition spell. Increase the number of Focus Points in your focus pool by 1.</p>"
        },
        "featType": {
            "value": "class"
        },
        "level": {
            "value": 20
        },
        "location": "",
        "prerequisites": {
            "value": []
        },
        "rules": [],
        "source": {
            "value": ""
        },
        "traits": {
            "custom": "",
            "rarity": {
                "value": "common"
            },
            "value": [
                "bard"
            ]
        }
    },
    "effects": [],
    "flags": {},
    "img": "systems/pf2e/icons/features/feats/feats.webp",
    "name": "Fatal Aria",
    "permission": {
        "default": 0
    },
    "type": "feat"
}
