{
    "_id": "rCajlx2KjGxzabAJ",
    "data": {
        "actionCategory": {
            "value": ""
        },
        "actionType": {
            "value": "passive"
        },
        "actions": {
            "value": ""
        },
        "description": {
            "chat": "",
            "unidentified": "",
            "value": "<p>Like many fiends, you have the supernatural ability to teleport yourself to safety. Once per day, you can cast @Compendium[pf2e.spells-srd.Dimension Door]{Dimension Door} as a 5th-level divine innate spell.</p>"
        },
        "featType": {
            "value": "ancestry"
        },
        "level": {
            "value": "13"
        },
        "prerequisites": {
            "value": []
        },
        "rules": [],
        "source": {
            "value": ""
        },
        "traits": {
            "custom": "",
            "rarity": {
                "value": "common"
            },
            "selected": {
                "tiefling": "Tiefling"
            },
            "value": [
                "tiefling"
            ]
        }
    },
    "effects": [],
    "flags": {},
    "img": "systems/pf2e/icons/features/feats/feats.webp",
    "name": "Fiend's Door",
    "permission": {
        "default": 0
    },
    "type": "feat"
}
