{
    "_id": "F6VlPyZZpqV6d2CS",
    "data": {
        "actionCategory": {
            "value": ""
        },
        "actionType": {
            "value": "action"
        },
        "actions": {
            "value": "1"
        },
        "description": {
            "chat": "",
            "unidentified": "",
            "value": "<p><strong>Requirements</strong> Your last action was a @Compendium[pf2e.feats-srd.Double Slice]{Double Slice}, and both attacks hit the target.</p>\n<hr />\n<p>When you hit with both attacks with Double Slice, you flense the target, making it bleed and creating a weak spot.</p>\n<p>The target takes [[/r 1d8 #persistent bleed]] persistent bleed damage per weapon damage die of whichever of the weapons you used that has the most weapon damage dice (maximum 4d8 for a <em>major striking</em> weapon).</p>\n<p>The target becomes flat-footed, and its resistances to any physical damage types are reduced by 5; these two effects last until the beginning of your next turn.</p>"
        },
        "featType": {
            "value": "archetype"
        },
        "level": {
            "value": "8"
        },
        "prerequisites": {
            "value": [
                {
                    "value": "Dual-Weapon Warrior Dedication"
                }
            ]
        },
        "rules": [],
        "source": {
            "value": ""
        },
        "traits": {
            "custom": "",
            "rarity": {
                "value": "common"
            },
            "value": [
                "archetype"
            ]
        }
    },
    "effects": [],
    "flags": {},
    "img": "systems/pf2e/icons/features/feats/feats.webp",
    "name": "Flensing Slice",
    "permission": {
        "default": 0
    },
    "type": "feat"
}
