{
    "_id": "isdTXU8bV7ZVOAuQ",
    "data": {
        "actionCategory": {
            "value": ""
        },
        "actionType": {
            "value": "action"
        },
        "actions": {
            "value": "1"
        },
        "description": {
            "chat": "",
            "unidentified": "",
            "value": "<p><strong>Requirements</strong> Your last action was a Strike that dropped an opponent to 0 Hit Points.</p>\n<hr />\n<p>Attempt a Performance check, comparing the result to the Will DC of each foe within 30 feet who can see you. Regardless of the result, each target is immune to your Flourishing Finish for 10 minutes.</p>\n<hr />\n<p><strong>Critical Success</strong> The target is @Compendium[pf2e.conditionitems.Frightened]{Frightened} 2.<br /><strong>Success</strong> The target is frightened 1.</p>"
        },
        "featType": {
            "value": "archetype"
        },
        "level": {
            "value": "12"
        },
        "prerequisites": {
            "value": [
                {
                    "value": "Provocator Dedication"
                }
            ]
        },
        "rules": [],
        "source": {
            "value": ""
        },
        "traits": {
            "custom": "",
            "rarity": {
                "value": "common"
            },
            "value": [
                "archetype",
                "concentrate",
                "emotion",
                "mental"
            ]
        }
    },
    "effects": [],
    "flags": {},
    "img": "systems/pf2e/icons/features/feats/feats.webp",
    "name": "Flourishing Finish",
    "permission": {
        "default": 0
    },
    "type": "feat"
}
