{
    "_id": "9Q0tPGtOawPTU2TU",
    "data": {
        "actionCategory": {
            "value": ""
        },
        "actionType": {
            "value": "action"
        },
        "actions": {
            "value": "1"
        },
        "description": {
            "chat": "",
            "unidentified": "",
            "value": "<p><strong>Requirements</strong> You used your previous action to make a <br />melee @Compendium[pf2e.actionspf2e.Strike]{Strike} that missed.</p>\n<hr />\n<p>Even in the face of failure you press the attack, determined to succeed. Make a Strike with the same weapon, adding the effects of the backswing and forceful weapon traits.</p>"
        },
        "featType": {
            "value": "class"
        },
        "level": {
            "value": "8"
        },
        "prerequisites": {
            "value": []
        },
        "rules": [],
        "source": {
            "value": ""
        },
        "traits": {
            "custom": "",
            "rarity": {
                "value": "common"
            },
            "value": [
                "barbarian",
                "rage"
            ]
        }
    },
    "effects": [],
    "flags": {},
    "img": "systems/pf2e/icons/features/feats/feats.webp",
    "name": "Follow-up Assault",
    "permission": {
        "default": 0
    },
    "type": "feat"
}
