{
    "_id": "W21jKAcG0GtEtBiK",
    "data": {
        "actionCategory": {
            "value": ""
        },
        "actionType": {
            "value": "action"
        },
        "actions": {
            "value": "1"
        },
        "description": {
            "chat": "",
            "unidentified": "",
            "value": "<p><strong>Requirements</strong> You are Medium or smaller.</p>\n<hr />\n<p>You grow to incredible size. You become Large, increasing your reach by 5 feet and gaining the clumsy 1 condition (page 618) until you stop raging. Your equipment grows with you.</p>\n<p>@Compendium[pf2e.feat-effects.Effect: Giant's Stature]{Effect: Giant's Stature}</p>"
        },
        "featType": {
            "value": "class"
        },
        "level": {
            "value": 6
        },
        "location": "",
        "prerequisites": {
            "value": [
                {
                    "value": "giant instinct"
                }
            ]
        },
        "rules": [],
        "source": {
            "value": ""
        },
        "traits": {
            "custom": "",
            "rarity": {
                "value": "common"
            },
            "value": [
                "barbarian",
                "polymorph",
                "primal",
                "rage",
                "transmutation"
            ]
        }
    },
    "effects": [],
    "flags": {},
    "img": "systems/pf2e/icons/features/feats/feats.webp",
    "name": "Giant's Stature",
    "permission": {
        "default": 0
    },
    "type": "feat"
}
