{
    "_id": "1WfvvjjObPKeZyid",
    "data": {
        "actionCategory": {
            "value": ""
        },
        "actionType": {
            "value": "passive"
        },
        "actions": {
            "value": ""
        },
        "description": {
            "chat": "",
            "unidentified": "",
            "value": "<p>You provide emotional and spiritual care. Add @Compendium[pf2e.conditionitems.Frightened]{Frightened}, @Compendium[pf2e.conditionitems.Stupefied]{Stupefied}, and @Compendium[pf2e.conditionitems.Stunned]{Stunned} to the list of conditions you can reduce with Treat Condition. If the stunned condition has a duration instead of a value, you can't use Treat Condition to reduce it.</p>"
        },
        "featType": {
            "value": "archetype"
        },
        "level": {
            "value": 6
        },
        "prerequisites": {
            "value": [
                {
                    "value": "trained in Diplomacy"
                },
                {
                    "value": "Treat Condition"
                }
            ]
        },
        "rules": [],
        "source": {
            "value": ""
        },
        "traits": {
            "custom": "",
            "rarity": {
                "value": "common"
            },
            "value": [
                "archetype",
                "skill"
            ]
        }
    },
    "effects": [],
    "flags": {},
    "img": "systems/pf2e/icons/features/feats/feats.webp",
    "name": "Holistic Care",
    "permission": {
        "default": 0
    },
    "type": "feat"
}
