{
    "_id": "bvOsJNeI0ewvQsFa",
    "data": {
        "actionCategory": {
            "value": ""
        },
        "actionType": {
            "value": "action"
        },
        "actions": {
            "value": "1"
        },
        "description": {
            "chat": "",
            "unidentified": "",
            "value": "<p>You become a brilliant example of dedication and poise in battle, encouraging your allies to follow suit.</p>\n<p>When you spend this action, attempt a Diplomacy check. The DC is usually a standard-difficulty DC of your level, but the GM can assign a different DC based on the circumstances. The effect depends on the result of your check.</p>\n<hr />\n<p><strong>Critical Success</strong> Your @Compendium[pf2e.feat-effects.Effect: Inspiring Marshal Stance]{Marshal's Aura} increases to a 20-foot <br />emanation and grants you and allies a +1 status bonus to attack rolls and saves against mental effects.</p>\n<p><strong>Success</strong> As critical success, but your aura's size doesn't <br />increase.</p>\n<p><strong>Failure</strong> You fail to enter the stance.</p>\n<p><strong>Critical Failure</strong> You fail to enter the stance and can't take this <br />action again for 1 minute.</p>"
        },
        "featType": {
            "value": "archetype"
        },
        "level": {
            "value": 4
        },
        "prerequisites": {
            "value": [
                {
                    "value": "Marshal Dedication"
                },
                {
                    "value": "trained in Diplomacy"
                }
            ]
        },
        "rules": [],
        "source": {
            "value": ""
        },
        "traits": {
            "custom": "",
            "rarity": {
                "value": "common"
            },
            "value": [
                "archetype",
                "open",
                "stance"
            ]
        }
    },
    "effects": [],
    "flags": {},
    "img": "systems/pf2e/icons/features/feats/feats.webp",
    "name": "Inspiring Marshal Stance",
    "permission": {
        "default": 0
    },
    "type": "feat"
}
