{
    "_id": "Veyt4x2Kb5YcPGTv",
    "data": {
        "actionCategory": {
            "value": ""
        },
        "actionType": {
            "value": "passive"
        },
        "actions": {
            "value": ""
        },
        "description": {
            "chat": "",
            "unidentified": "",
            "value": "<p>Your knowledge of monsters is so incredible that it reveals glaring flaws in your prey. Your bonus from @Compendium[pf2e.feats-srd.Monster Hunter]{Monster Hunter} (and the bonus from @Compendium[pf2e.feats-srd.Monster Warden]{Monster Warden} if you have it) increases from +1 to +2 for you and any allies who benefit.</p>\n<p>@Compendium[pf2e.feat-effects.Effect: Legendary Monster Hunter]{Effect: Legendary Monster Hunter}</p>\n<p>@Compendium[pf2e.feat-effects.Effect: Legendary Monster Warden]{Effect: Legendary Monster Warden}</p>"
        },
        "featType": {
            "value": "class"
        },
        "level": {
            "value": 16
        },
        "location": "",
        "prerequisites": {
            "value": [
                {
                    "value": "legendary in Nature"
                },
                {
                    "value": "Master Monster Hunter"
                }
            ]
        },
        "rules": [],
        "source": {
            "value": ""
        },
        "traits": {
            "custom": "",
            "rarity": {
                "value": "common"
            },
            "value": [
                "ranger"
            ]
        }
    },
    "effects": [],
    "flags": {},
    "img": "systems/pf2e/icons/features/feats/feats.webp",
    "name": "Legendary Monster Hunter",
    "permission": {
        "default": 0
    },
    "type": "feat"
}
