{
    "_id": "AuIE19F9rY3YvXf6",
    "data": {
        "actionCategory": {
            "value": ""
        },
        "actionType": {
            "value": "passive"
        },
        "actions": {
            "value": ""
        },
        "description": {
            "chat": "",
            "unidentified": "",
            "value": "<p>While study is key to your success, a bit of magic is a helpful tool in discovering the secrets of the past. You gain @Compendium[pf2e.spells-srd.Detect Magic]{Detect Magic}, @Compendium[pf2e.spells-srd.Guidance]{Guidance}, and @Compendium[pf2e.spells-srd.Read Aura]{Read Aura} as occult innate cantrips.</p>"
        },
        "featType": {
            "value": "archetype"
        },
        "level": {
            "value": "4"
        },
        "prerequisites": {
            "value": [
                {
                    "value": "Archaeologist Dedication"
                }
            ]
        },
        "rules": [],
        "source": {
            "value": ""
        },
        "traits": {
            "custom": "",
            "rarity": {
                "value": "common"
            },
            "value": [
                "archetype"
            ]
        }
    },
    "effects": [],
    "flags": {},
    "img": "systems/pf2e/icons/features/feats/feats.webp",
    "name": "Magical Scholastics",
    "permission": {
        "default": 0
    },
    "type": "feat"
}
