{
    "_id": "htOsE4hnSj2gzKdi",
    "data": {
        "actionCategory": {
            "value": ""
        },
        "actionType": {
            "value": "action"
        },
        "actions": {
            "value": "2"
        },
        "description": {
            "chat": "",
            "unidentified": "",
            "value": "<p>You make a quick attack and rob your foe in the process. Make a melee @Compendium[pf2e.actionspf2e.Strike]{Strike} against an adjacent foe. If you hit and deal sneak attack damage, you can also attempt to @Compendium[pf2e.actionspf2e.Steal]{Steal} from the target, even if the target is in combat.</p>"
        },
        "featType": {
            "value": "class"
        },
        "level": {
            "value": "4"
        },
        "prerequisites": {
            "value": []
        },
        "rules": [],
        "source": {
            "value": ""
        },
        "traits": {
            "custom": "",
            "rarity": {
                "value": "common"
            },
            "value": [
                "rogue"
            ]
        }
    },
    "effects": [],
    "flags": {},
    "img": "systems/pf2e/icons/features/feats/feats.webp",
    "name": "Mug",
    "permission": {
        "default": 0
    },
    "type": "feat"
}
