{
    "_id": "dAckQkpg1qyTz8od",
    "data": {
        "actionCategory": {
            "value": ""
        },
        "actionType": {
            "value": "passive"
        },
        "actions": {
            "value": ""
        },
        "description": {
            "chat": "",
            "unidentified": "",
            "value": "<p>You can cast difficult rituals that might otherwise be just beyond your skill. You can attempt checks to cast a ritual that requires expert proficiency if you are trained, master proficiency if you are an expert, or legendary proficiency if you are a master.</p>"
        },
        "featType": {
            "value": "archetype"
        },
        "level": {
            "value": "6"
        },
        "prerequisites": {
            "value": [
                {
                    "value": "Ritualist Dedication"
                }
            ]
        },
        "rules": [],
        "source": {
            "value": ""
        },
        "traits": {
            "custom": "",
            "rarity": {
                "value": "common"
            },
            "value": [
                "archetype",
                "skill"
            ]
        }
    },
    "effects": [],
    "flags": {},
    "img": "systems/pf2e/icons/features/feats/feats.webp",
    "name": "Resourceful Ritualist",
    "permission": {
        "default": 0
    },
    "type": "feat"
}
