{
    "_id": "Iqa96LHn3Bs2xEJA",
    "data": {
        "actionCategory": {
            "value": ""
        },
        "actionType": {
            "value": "passive"
        },
        "actions": {
            "value": ""
        },
        "description": {
            "chat": "",
            "unidentified": "",
            "value": "<p>You are trained in Intimidation (or another skill of your choice, if you were already trained in Intimidation) and gain the @Compendium[pf2e.feats-srd.Intimidating Glare]{Intimidating Glare} skill feat as a bonus feat.</p>"
        },
        "featType": {
            "value": "ancestry"
        },
        "level": {
            "value": 1
        },
        "location": "",
        "prerequisites": {
            "value": []
        },
        "rules": [],
        "source": {
            "value": ""
        },
        "traits": {
            "custom": "",
            "rarity": {
                "value": "common"
            },
            "value": [
                "fleshwarp"
            ]
        },
        "usage": {
            "value": ""
        }
    },
    "effects": [],
    "flags": {},
    "img": "systems/pf2e/icons/features/feats/feats.webp",
    "name": "Startling Appearance (Fleshwarp)",
    "permission": {
        "default": 0
    },
    "type": "feat"
}
