{
    "_id": "jFmdevE4nKevovzo",
    "data": {
        "actionCategory": {
            "value": ""
        },
        "actionType": {
            "value": "action"
        },
        "actions": {
            "value": "1"
        },
        "description": {
            "chat": "",
            "unidentified": "",
            "value": "<p><strong>Cost</strong> 1 Resolve Point<br /></p>\n<hr />\n<p>Regain Stamina Points equal to half your maximum.</p>"
        },
        "featType": {
            "value": "general"
        },
        "level": {
            "value": "3"
        },
        "prerequisites": {
            "value": []
        },
        "rules": [],
        "source": {
            "value": ""
        },
        "traits": {
            "custom": "",
            "rarity": {
                "value": "common"
            },
            "value": [
                "general",
                "stamina"
            ]
        }
    },
    "effects": [],
    "flags": {},
    "img": "systems/pf2e/icons/features/feats/feats.webp",
    "name": "Steel Your Resolve",
    "permission": {
        "default": 0
    },
    "type": "feat"
}
