{
    "_id": "llawV63qzdynbOkx",
    "data": {
        "actionCategory": {
            "value": ""
        },
        "actionType": {
            "value": "passive"
        },
        "actions": {
            "value": ""
        },
        "description": {
            "chat": "",
            "unidentified": "",
            "value": "<p>You gain a unique communion with the earth and stones. You learn the Terran language and you can Activate your <em>ka stone</em> with a 10-minute activation (envision) to cast @Compendium[pf2e.spells-srd.Stone Tell]{Stone Tell}.</p>"
        },
        "featType": {
            "value": "archetype"
        },
        "level": {
            "value": "14"
        },
        "prerequisites": {
            "value": [
                {
                    "value": "Ka Stone Ritual"
                }
            ]
        },
        "rules": [],
        "source": {
            "value": ""
        },
        "traits": {
            "custom": "",
            "rarity": {
                "value": "common"
            },
            "value": [
                "archetype"
            ]
        }
    },
    "effects": [],
    "flags": {},
    "img": "systems/pf2e/icons/features/feats/feats.webp",
    "name": "Stone Communion",
    "permission": {
        "default": 0
    },
    "type": "feat"
}
