{
    "_id": "Uzz7oZit3FNO9FxO",
    "data": {
        "actionCategory": {
            "value": ""
        },
        "actionType": {
            "value": "passive"
        },
        "actions": {
            "value": ""
        },
        "description": {
            "chat": "",
            "unidentified": "",
            "value": "<p>You can manifest draconic wings to soar through the air at great speed. You gain the @Compendium[pf2e.spells-srd.Dragon Wings]{Dragon Wings} sorcerer bloodline spell and a focus pool of 1 Focus Point. If you already have a focus pool, increase your number of Focus Points by 1.</p>"
        },
        "featType": {
            "value": "archetype"
        },
        "level": {
            "value": "12"
        },
        "prerequisites": {
            "value": [
                {
                    "value": "Dragon Disciple Dedication"
                }
            ]
        },
        "rules": [],
        "source": {
            "value": ""
        },
        "traits": {
            "custom": "",
            "rarity": {
                "value": "common"
            },
            "value": [
                "archetype"
            ]
        }
    },
    "effects": [],
    "flags": {},
    "img": "systems/pf2e/icons/features/feats/feats.webp",
    "name": "Wings Of The Dragon",
    "permission": {
        "default": 0
    },
    "type": "feat"
}
