{
    "_id": "LOlv11WEGUQWYKna",
    "data": {
        "actionCategory": {
            "value": ""
        },
        "actionType": {
            "value": "passive"
        },
        "actions": {
            "value": ""
        },
        "description": {
            "chat": "",
            "unidentified": "",
            "value": "<p><strong>Minor Boon (Single Use)</strong>: For those at the end of a journey, Desna gifts a deep sleep.</p>\n<p>Once, after you rest, you completely recover all Hit Points, remove all negative conditions, and become free of any curses or diseases.</p>"
        },
        "featType": {
            "value": "deityboon"
        },
        "level": {
            "value": "0"
        },
        "prerequisites": {
            "value": []
        },
        "rules": [],
        "source": {
            "value": ""
        },
        "traits": {
            "custom": "",
            "rarity": {
                "value": "common"
            },
            "selected": {},
            "value": []
        }
    },
    "effects": [],
    "flags": {},
    "img": "systems/pf2e/icons/deity/Desna.webp",
    "name": "Desna - Minor Boon",
    "permission": {
        "default": 0
    },
    "type": "feat"
}
