{
    "_id": "an4yZ6dyIDOFa1wa",
    "data": {
        "description": {
            "value": "<p>Granted by @Compendium[pf2e.spells-srd.Soothing Words]{Soothing Words}.</p>\n<p>The target gains a +1 status bonus to Will saving throws. This bonus increases to +2 against emotion effects</p>\n<hr />\n<p><strong>Heightened (5th)</strong> The bonus to saves increases to +2, or +3 against emotion effects.</p>"
        },
        "duration": {
            "expiry": "turn-start",
            "sustained": false,
            "unit": "rounds",
            "value": 1
        },
        "level": {
            "value": 1
        },
        "rules": [
            {
                "key": "PF2E.RuleElement.TokenEffectIcon"
            },
            {
                "key": "PF2E.RuleElement.FlatModifier",
                "selector": "will",
                "type": "status",
                "value": {
                    "brackets": [
                        {
                            "end": 4,
                            "value": 1
                        },
                        {
                            "start": 5,
                            "value": 2
                        }
                    ],
                    "field": "item|data.level.value"
                }
            },
            {
                "key": "PF2E.RuleElement.FlatModifier",
                "label": "Soothing Words (vs. emotion)",
                "predicate": {
                    "all": [
                        "emotion"
                    ]
                },
                "selector": "will",
                "type": "status",
                "value": {
                    "brackets": [
                        {
                            "end": 4,
                            "value": 2
                        },
                        {
                            "start": 5,
                            "value": 3
                        }
                    ],
                    "field": "item|data.level.value"
                }
            }
        ],
        "source": {
            "value": ""
        },
        "start": {
            "initiative": null,
            "value": 0
        },
        "target": null,
        "traits": {
            "custom": "",
            "rarity": {
                "value": "common"
            },
            "value": []
        }
    },
    "effects": [],
    "flags": {},
    "img": "systems/pf2e/icons/spells/soothing-words.webp",
    "name": "Spell Effect: Soothing Words",
    "permission": {
        "default": 0
    },
    "type": "effect"
}
