{
    "_id": "b7AnzEzoMGFpM33z",
    "data": {
        "attributes": {
            "ac": {
                "value": 39
            },
            "hardness": 22,
            "hasHealth": true,
            "hp": {
                "details": "",
                "max": 112,
                "temp": 0,
                "tempmax": 0,
                "value": 112
            },
            "stealth": {
                "details": "(master)",
                "value": 36
            }
        },
        "creatureType": "",
        "details": {
            "description": "Steel hatch doors automatically lock shut in each of the four vats labeled <b>J2</b>. Four ink spouts (one per vat) jut through a narrow aperture in the ceiling of each vat, 20 feet above.",
            "disable": "DC 40 Thievery (master) to seal an ink spout, DC 48 Thievery (master) to unlock a steel hatch door, or DC 45 Athletics (master) to Force Open a steel hatch door",
            "isComplex": true,
            "level": 18,
            "reset": "The trap can be reset by refilling the ink storage tanks above the vats.",
            "routine": "(4 actions) The trap loses 1 action for each disabled ink spout. On each of the trap's actions, a spout pours ink, increasing the depth of the ink in that vat by 2 feet. Creatures standing in the ink are exposed to a dose of poison ink. Once the vat is full of ink, the trap stops using actions, but creatures in the vat might start drowning."
        },
        "flavourText": "",
        "recallKnowledgeText": "",
        "saves": {
            "fortitude": {
                "rank": 0,
                "saveDetail": "",
                "value": 30
            },
            "reflex": {
                "rank": 0,
                "saveDetail": "",
                "value": 27
            },
            "will": {
                "rank": 0,
                "saveDetail": "",
                "value": 0
            }
        },
        "schema": {
            "version": {
                "value": ""
            }
        },
        "sidebarText": "",
        "source": {
            "value": ""
        },
        "statusEffects": [],
        "traits": {
            "ci": [],
            "di": {
                "custom": "",
                "selected": {},
                "value": [
                    "critical-hits",
                    "object-immunities",
                    "precision"
                ]
            },
            "dr": [],
            "dv": [],
            "rarity": {
                "value": "common"
            },
            "size": {
                "value": "med"
            },
            "traits": {
                "custom": "",
                "value": [
                    "mechanical"
                ]
            }
        }
    },
    "effects": [],
    "flags": {},
    "img": "systems/pf2e/icons/default-icons/hazard.svg",
    "items": [
        {
            "_id": "6cFodLsS9nMte5ts",
            "data": {
                "actionCategory": {
                    "value": "offensive"
                },
                "actionType": {
                    "value": "reaction"
                },
                "actions": {
                    "value": ""
                },
                "description": {
                    "chat": "",
                    "unidentified": "",
                    "value": "<p><strong>Trigger</strong> The switch outside the vats is pulled; <strong>Effect</strong> The trap rolls initiative.</p>"
                },
                "requirements": {
                    "value": ""
                },
                "rules": [],
                "slug": null,
                "source": {
                    "value": ""
                },
                "traits": {
                    "custom": "",
                    "rarity": {
                        "value": "common"
                    },
                    "value": []
                },
                "trigger": {
                    "value": ""
                },
                "usage": {
                    "value": "held-in-one-hand"
                },
                "weapon": {
                    "value": ""
                }
            },
            "effects": [],
            "flags": {},
            "img": "systems/pf2e/icons/actions/Reaction.webp",
            "name": "Fill Tank",
            "sort": 100000,
            "type": "action"
        },
        {
            "_id": "09M4q5fVCuvOwcWk",
            "data": {
                "actionCategory": {
                    "value": "offensive"
                },
                "actionType": {
                    "value": "passive"
                },
                "actions": {
                    "value": ""
                },
                "description": {
                    "chat": "",
                    "unidentified": "",
                    "value": "<p><strong>Saving Throw</strong> DC 38 Fortitude; <strong>Maximum Duration</strong> 10 rounds; <strong>Stage 1</strong> 3d6 poison damage and sickened 1 (1 round); <strong>Stage 2</strong> 4d6 poison damage and sickened 2 (1 round)</p>"
                },
                "requirements": {
                    "value": ""
                },
                "rules": [],
                "slug": null,
                "source": {
                    "value": ""
                },
                "traits": {
                    "custom": "",
                    "rarity": {
                        "value": "common"
                    },
                    "value": [
                        "poison"
                    ]
                },
                "trigger": {
                    "value": ""
                },
                "usage": {
                    "value": "held-in-one-hand"
                },
                "weapon": {
                    "value": ""
                }
            },
            "effects": [],
            "flags": {},
            "img": "systems/pf2e/icons/actions/Passive.webp",
            "name": "Poison Ink",
            "sort": 200000,
            "type": "action"
        }
    ],
    "name": "Ink Drowning Vats",
    "permission": {
        "default": 0
    },
    "token": {
        "actorId": "b7AnzEzoMGFpM33z",
        "actorLink": false,
        "bar1": {
            "attribute": "attributes.hp"
        },
        "bar2": {},
        "brightLight": 0,
        "brightSight": 0,
        "dimLight": 0,
        "dimSight": 0,
        "displayBars": 20,
        "displayName": 20,
        "disposition": 0,
        "flags": {},
        "height": 1,
        "img": "systems/pf2e/icons/default-icons/hazard.svg",
        "lightAlpha": 1,
        "lightAngle": 360,
        "lightAnimation": {
            "intensity": 5,
            "speed": 5
        },
        "lockRotation": false,
        "name": "Ink Drowning Vats",
        "randomImg": false,
        "rotation": 0,
        "scale": 1,
        "sightAngle": 360,
        "tint": null,
        "vision": false,
        "width": 1
    },
    "type": "hazard"
}
