{
    "_id": "5HoEwzLDJGTCZtFa",
    "data": {
        "actionCategory": {
            "value": ""
        },
        "actionType": {
            "value": "passive"
        },
        "actions": {
            "value": ""
        },
        "description": {
            "chat": "",
            "unidentified": "",
            "value": "<p>To you, a fight is a kind of performance art, and you command your foes' attention with mesmerizing motions.</p>\n<p>You are trained in Performance and gain the @Compendium[pf2e.feats-srd.Fascinating Performance]{Fascinating Performance} skill feat. You gain @Compendium[pf2e.classfeatures.Panache]{Panache} during an encounter when the result of your Performance check to Perform exceeds the Will DC of an observing foe, even if the foe isn't fascinated.</p>"
        },
        "featType": {
            "value": "classfeature"
        },
        "level": {
            "value": 1
        },
        "location": "",
        "prerequisites": {
            "value": []
        },
        "rules": [
            {
                "key": "PF2E.RuleElement.FlatModifier",
                "predicate": {
                    "all": [
                        "panache"
                    ],
                    "any": [
                        "action:perform"
                    ]
                },
                "selector": "performance",
                "type": "circumstance",
                "value": 1
            }
        ],
        "source": {
            "value": ""
        },
        "traits": {
            "custom": "",
            "rarity": {
                "value": "common"
            },
            "value": [
                "swashbuckler"
            ]
        }
    },
    "effects": [
        {
            "_id": "TYPKKryzGgCp8GcH",
            "changes": [
                {
                    "key": "data.skills.prf.rank",
                    "mode": 4,
                    "value": 1
                }
            ],
            "disabled": false,
            "duration": {
                "rounds": null,
                "seconds": null,
                "startRound": null,
                "startTime": null,
                "startTurn": null,
                "turns": null
            },
            "flags": {},
            "icon": "systems/pf2e/icons/features/classes/battledancer-style.webp",
            "label": "Battledancer Style",
            "origin": "",
            "tint": "",
            "transfer": true
        }
    ],
    "flags": {},
    "img": "systems/pf2e/icons/features/classes/battledancer-style.webp",
    "name": "Battledancer Style",
    "permission": {
        "default": 0
    },
    "type": "feat"
}
