{
    "_id": "uoQOm41BVdSo6pAS",
    "data": {
        "actionCategory": {
            "value": ""
        },
        "actionType": {
            "value": "passive"
        },
        "actions": {
            "value": ""
        },
        "description": {
            "chat": "",
            "unidentified": "",
            "value": "<p>Whether due to a velstrac's manipulations or a planar jaunt gone horribly wrong, your bloodline was infused with a vein of shadow.</p>\n<p><strong>Spell List</strong> occult</p>\n<p><strong>Bloodline Skills</strong> Occultism, Stealth</p>\n<p><strong>Granted Spells</strong> cantrip: @Compendium[pf2e.spells-srd.Chill Touch]{Chill Touch}; 1st: @Compendium[pf2e.spells-srd.Grim Tendrils]{Grim Tendrils}; 2nd: @Compendium[pf2e.spells-srd.Darkness]{Darkness}; 3rd: @Compendium[pf2e.spells-srd.Chilling Darkness]{Chilling Darkness}; 4th: @Compendium[pf2e.spells-srd.Phantasmal Killer]{Phantasmal Killer}; 5th: @Compendium[pf2e.spells-srd.Shadow Siphon]{Shadow Siphon}; 6th: @Compendium[pf2e.spells-srd.Collective Transposition]{Collective Transposition}; 7th: @Compendium[pf2e.spells-srd.Duplicate Foe]{Duplicate Foe}; 8th: @Compendium[pf2e.spells-srd.Disappearance]{Disappearance}; 9th: @Compendium[pf2e.spells-srd.Weird]{Weird}</p>\n<p><strong>Bloodline Spells</strong> initial: @Compendium[pf2e.spells-srd.Dim the Light]{Dim the Light}; advanced: @Compendium[pf2e.spells-srd.Steal Shadow]{Steal Shadow}; greater: @Compendium[pf2e.spells-srd.Consuming Darkness]{Consuming Darkness}</p>\n<p><strong>Blood Magic</strong> Shadows grow deeper around you or one target, either granting a +1 status bonus to Stealth or imposing a -1 status penalty to Perception for 1 round.</p>\n<p>@Compendium[pf2e.feature-effects.Effect: Shadow Blood Magic (Perception)]{Effect: Shadow Blood Magic (Perception)}, @Compendium[pf2e.feature-effects.Effect: Shadow Blood Magic (Stealth)]{Effect: Shadow Blood Magic (Stealth)}</p>"
        },
        "featType": {
            "value": "classfeature"
        },
        "level": {
            "value": 1
        },
        "location": "",
        "prerequisites": {
            "value": []
        },
        "rules": [],
        "source": {
            "value": ""
        },
        "traits": {
            "custom": "",
            "rarity": {
                "value": "common"
            },
            "value": [
                "sorcerer"
            ]
        }
    },
    "effects": [
        {
            "_id": "VYWqGF70gEEhjbcQ",
            "changes": [
                {
                    "key": "data.skills.occ.rank",
                    "mode": 4,
                    "value": 1
                },
                {
                    "key": "data.skills.ste.rank",
                    "mode": 4,
                    "value": 1
                }
            ],
            "disabled": false,
            "duration": {
                "rounds": null,
                "seconds": null,
                "startRound": null,
                "startTime": null,
                "startTurn": null,
                "turns": null
            },
            "flags": {},
            "icon": "systems/pf2e/icons/features/classes/shadow.webp",
            "label": "Bloodline: Shadow",
            "origin": "",
            "tint": "",
            "transfer": true
        }
    ],
    "flags": {},
    "img": "systems/pf2e/icons/features/classes/shadow.webp",
    "name": "Bloodline: Shadow",
    "permission": {
        "default": 0
    },
    "type": "feat"
}
