{
    "_id": "qC0Iz6SlG2i9gv6g",
    "data": {
        "actionCategory": {
            "value": ""
        },
        "actionType": {
            "value": "passive"
        },
        "actions": {
            "value": ""
        },
        "description": {
            "chat": "",
            "unidentified": "",
            "value": "<p>When using advanced alchemy to make elixirs of life during your daily preparations, you can create three elixirs with each batch of reagents instead of two.</p>"
        },
        "featType": {
            "value": "classfeature"
        },
        "level": {
            "value": "5"
        },
        "prerequisites": {
            "value": []
        },
        "rules": [],
        "source": {
            "value": ""
        },
        "traits": {
            "custom": "",
            "rarity": {
                "value": "common"
            },
            "value": [
                "alchemist"
            ]
        }
    },
    "effects": [],
    "flags": {},
    "img": "systems/pf2e/icons/features/classes/field-discovery-chirurgeon.webp",
    "name": "Field Discovery (Chirurgeon)",
    "permission": {
        "default": 0
    },
    "type": "feat"
}
