{
    "_id": "3uf31A91h3ywmlqm",
    "data": {
        "actionCategory": {
            "value": ""
        },
        "actionType": {
            "value": "passive"
        },
        "actions": {
            "value": ""
        },
        "description": {
            "chat": "",
            "unidentified": "",
            "value": "<p>You're exalted by your deity and gain truly incredible spells. You gain a single 10th-level spell slot and can prepare a spell in that slot using divine spellcasting. You can't use this spell slot for abilities that let you cast spells without expending spell slots or that give you more spell slots. You don't gain more 10th-level spells as you level up, though you can take the @Compendium[pf2e.feats-srd.Maker of Miracles]{Maker of Miracles} feat to gain a second slot.</p>"
        },
        "featType": {
            "value": "classfeature"
        },
        "level": {
            "value": 19
        },
        "prerequisites": {
            "value": []
        },
        "rules": [],
        "source": {
            "value": ""
        },
        "traits": {
            "custom": "",
            "rarity": {
                "value": "common"
            },
            "value": [
                "cleric"
            ]
        }
    },
    "effects": [],
    "flags": {},
    "img": "systems/pf2e/icons/features/classes/miraculous-spell.webp",
    "name": "Miraculous Spell",
    "permission": {
        "default": 0
    },
    "type": "feat"
}
