{
    "_id": "j1JE61quDxdge4mg",
    "data": {
        "actionCategory": {
            "value": ""
        },
        "actionType": {
            "value": "passive"
        },
        "actions": {
            "value": ""
        },
        "description": {
            "chat": "",
            "unidentified": "",
            "value": "<p>When your enemy can't properly defend itself, you take advantage to deal extra damage. If you Strike a creature that has the @Compendium[pf2e.conditionitems.Flat-Footed]{Flat-Footed} condition with an agile or finesse melee weapon, an agile or finesse unarmed attack, or a ranged weapon attack, you deal an extra 1d6 precision damage. For a ranged attack with a thrown melee weapon, that weapon must also be agile or finesse.<br /></p>\n<p>As your rogue level increases, so does the number of damage dice for your sneak attack. Increase the number of dice by one at 5th, 11th, and 17th levels.</p>"
        },
        "featType": {
            "value": "classfeature"
        },
        "level": {
            "value": "1"
        },
        "prerequisites": {
            "value": []
        },
        "rules": [
            {
                "category": "precision",
                "dieSize": "d6",
                "key": "PF2E.RuleElement.DamageDice",
                "predicate": {
                    "all": [
                        "target:flatFooted"
                    ],
                    "any": [
                        "finesse",
                        "agile",
                        "ranged"
                    ]
                },
                "selector": "damage",
                "value": {
                    "brackets": [
                        {
                            "end": 4,
                            "value": {
                                "diceNumber": 1
                            }
                        },
                        {
                            "end": 10,
                            "start": 5,
                            "value": {
                                "diceNumber": 2
                            }
                        },
                        {
                            "end": 16,
                            "start": 11,
                            "value": {
                                "diceNumber": 3
                            }
                        },
                        {
                            "start": 17,
                            "value": {
                                "diceNumber": 4
                            }
                        }
                    ]
                }
            }
        ],
        "source": {
            "value": ""
        },
        "traits": {
            "custom": "",
            "rarity": {
                "value": "common"
            },
            "value": [
                "rogue"
            ]
        }
    },
    "effects": [],
    "flags": {},
    "img": "systems/pf2e/icons/features/classes/sneak-attack.webp",
    "name": "Sneak Attack",
    "permission": {
        "default": 0
    },
    "type": "feat"
}
