{
    "_id": "KIV2LqzS5KtqOItV",
    "data": {
        "ability": {
            "value": ""
        },
        "area": {
            "value": ""
        },
        "areasize": {
            "value": ""
        },
        "category": {
            "value": "focus"
        },
        "components": {
            "value": "somatic or (somatic and verbal)"
        },
        "cost": {
            "value": ""
        },
        "damage": {
            "applyMod": false,
            "value": "1d10"
        },
        "damageType": {
            "value": ""
        },
        "description": {
            "chat": "",
            "unidentified": "",
            "value": "<p>You harness positive energy to heal your animal companion's wounds. You restore [[/r 1d10]] Hit Points to your animal companion. The number of actions you spend @Compendium[pf2e.actionspf2e.Cast a Spell]{Casting this Spell} determines range and other parameters.</p>\n<ul>\n<li><span class=\"pf2-icon\">1</span> (somatic) The spell has a range of touch.</li>\n<li><span class=\"pf2-icon\">2</span> (verbal) The spell has a range of 30 feet and restores an additional 8 Hit Points to the target.</li>\n</ul>\n<hr />\n<p><strong>Heightened (+1)</strong> The amount of healing increases by [[/r 1d10]], and the additional healing for the 2-action version increases by 8.</p>"
        },
        "duration": {
            "value": ""
        },
        "hasCounteractCheck": {
            "value": false
        },
        "level": {
            "value": 1
        },
        "location": {
            "value": ""
        },
        "materials": {
            "value": ""
        },
        "prepared": {
            "value": ""
        },
        "primarycheck": {
            "value": ""
        },
        "range": {
            "value": "touch or 30 ft"
        },
        "rules": [],
        "save": {
            "basic": "",
            "value": ""
        },
        "scaling": {
            "formula": "1d10",
            "mode": "level1"
        },
        "school": {
            "value": "necromancy"
        },
        "secondarycasters": {
            "value": ""
        },
        "secondarycheck": {
            "value": ""
        },
        "source": {
            "value": ""
        },
        "spellType": {
            "value": "heal"
        },
        "sustained": {
            "value": false
        },
        "target": {
            "value": "your animal companion"
        },
        "time": {
            "value": "1 or 2"
        },
        "traditions": {
            "value": []
        },
        "traits": {
            "custom": "",
            "rarity": {
                "value": "uncommon"
            },
            "value": [
                "healing",
                "necromancy",
                "positive",
                "ranger"
            ]
        }
    },
    "effects": [],
    "flags": {},
    "img": "systems/pf2e/icons/spells/heal-companion.webp",
    "name": "Heal Companion",
    "permission": {
        "default": 0
    },
    "type": "spell"
}
