{
    "_id": "XhgMx9WC6NfXd9RP",
    "data": {
        "ability": {
            "value": ""
        },
        "area": {
            "areaType": "",
            "value": null
        },
        "areasize": {
            "value": ""
        },
        "category": {
            "value": "focus"
        },
        "components": {
            "value": "somatic, verbal"
        },
        "cost": {
            "value": ""
        },
        "damage": {
            "applyMod": false,
            "value": ""
        },
        "damageType": {
            "value": ""
        },
        "description": {
            "chat": "",
            "unidentified": "",
            "value": "<p>You sharpen a creature's senses, though more distant objects become hazy, indistinct, or muted to it.</p>\n<p>The target gains a +1 status bonus to Perception checks attempted with any of its precise senses.</p>\n<p>Furthermore, any imprecise senses the target has are sharpened to precise senses (though they do not receive the status bonus). However, the target cannot perceive anything beyond a range of 20 feet with any of its senses.</p>\n<p>The duration is determined by the target's Will save. You can allow allies to choose the outcome instead of rolling a saving throw.</p>\n<hr />\n<p><strong>Critical Success</strong> The target is unaffected.</p>\n<p><strong>Success</strong> The target is affected for 1 round.</p>\n<p><strong>Failure</strong> The target is affected for 1 minute.</p>\n<p><strong>Critical Failure</strong> As failure, but the target cannot perceive anything beyond a range of 10 feet.</p>\n<hr />\n<p><strong>Heightened (3rd)</strong> You can target up to 2 creatures.</p>\n<p><strong>Heightened (6th)</strong> You can target up to 4 creatures.</p><p>@Compendium[pf2e.spell-effects.Spell Effect: Hyperfocus]{Spell Effect: Hyperfocus}</p>"
        },
        "duration": {
            "value": "varies"
        },
        "hasCounteractCheck": {
            "value": false
        },
        "level": {
            "value": 1
        },
        "location": {
            "value": ""
        },
        "materials": {
            "value": ""
        },
        "prepared": {
            "value": ""
        },
        "primarycheck": {
            "value": ""
        },
        "range": {
            "value": "30 feet"
        },
        "rules": [],
        "save": {
            "basic": "",
            "value": "will"
        },
        "scaling": {
            "formula": "",
            "mode": "none"
        },
        "school": {
            "value": "divination"
        },
        "secondarycasters": {
            "value": ""
        },
        "secondarycheck": {
            "value": ""
        },
        "source": {
            "value": ""
        },
        "spellType": {
            "value": "save"
        },
        "sustained": {
            "value": false
        },
        "target": {
            "value": "1 creature"
        },
        "time": {
            "value": "2"
        },
        "traditions": {
            "custom": "",
            "value": []
        },
        "traits": {
            "custom": "",
            "rarity": {
                "value": "common"
            },
            "value": [
                "cleric",
                "divination"
            ]
        }
    },
    "effects": [],
    "flags": {},
    "img": "systems/pf2e/icons/spells/hyperfocus.webp",
    "name": "Hyperfocus",
    "permission": {
        "default": 0
    },
    "type": "spell"
}
