{
    "_id": "lXxP1ziyf4ozkpmv",
    "data": {
        "ability": {
            "value": ""
        },
        "area": {
            "areaType": "",
            "value": ""
        },
        "category": {
            "value": "focus"
        },
        "components": {
            "value": "somatic"
        },
        "cost": {
            "value": ""
        },
        "damage": {
            "applyMod": false,
            "value": "1d8"
        },
        "damageType": {
            "value": "slashing"
        },
        "description": {
            "value": "<p>The deceiving creature's tongue splits like a serpent's tongue. The creature takes 1d8 slashing damage and must attempt a Fortitude save.<br /><br /><strong>Critical Success</strong> The creature is unaffected.<br /><strong>Success</strong> The creature takes half damage.<br /><strong>Failure</strong> The creature takes full damage and is @Compendium[pf2e.conditionitems.Stupefied]{Stupefied} 1 for [[/roll 1d4]] rounds.<br /><strong>Critical Failure</strong> As failure, but the creature takes double damage and is @Compendium[pf2e.conditionitems.Stupefied]{Stupefied} 2 for [[/roll 1d4]] rounds.</p>\n<hr />\n<p><strong>Heightened (+1)</strong> The damage increases by 1d8.</p>"
        },
        "duration": {
            "value": ""
        },
        "hasCounteractCheck": {
            "value": false
        },
        "level": {
            "value": 1
        },
        "location": {
            "value": ""
        },
        "materials": {
            "value": ""
        },
        "prepared": {
            "value": ""
        },
        "range": {
            "value": "30 feet"
        },
        "rules": [],
        "save": {
            "basic": "basic",
            "value": "fortitude"
        },
        "scaling": {
            "formula": "1d8",
            "mode": "level1"
        },
        "school": {
            "value": "transmutation"
        },
        "source": {
            "value": ""
        },
        "spellType": {
            "value": "save"
        },
        "sustained": {
            "value": false
        },
        "target": {
            "value": "A creature within 30 feet fails a Deception or Diplomacy check."
        },
        "time": {
            "value": "reaction"
        },
        "traditions": {
            "custom": "",
            "value": []
        },
        "traits": {
            "custom": "",
            "rarity": {
                "value": "uncommon"
            },
            "value": []
        }
    },
    "effects": [],
    "flags": {},
    "img": "systems/pf2e/icons/spells/split-the-tongue.webp",
    "name": "Split the Tongue",
    "permission": {
        "default": 0
    },
    "type": "spell"
}
