{
    "_id": "W37iBXLsY2trJ1rS",
    "data": {
        "ability": {
            "value": ""
        },
        "area": {
            "areaType": "",
            "value": null
        },
        "areasize": {
            "value": ""
        },
        "category": {
            "value": "focus"
        },
        "components": {
            "value": "somatic"
        },
        "cost": {
            "value": ""
        },
        "damage": {
            "applyMod": false,
            "value": ""
        },
        "damageType": {
            "value": ""
        },
        "description": {
            "chat": "",
            "unidentified": "",
            "value": "<p>Holding your weapon aloft, you fill it with divine energy.</p>\n<p>On your next Strike with that weapon before the start of your next turn, you gain a +1 status bonus to the attack roll and the weapon deals an additional die of damage.</p>\n<p>If the weapon has a striking rune, this instead increases the number of dice from the striking rune by 1 (to a maximum of 3 extra weapon dice).</p>\n<p>If the target weapon leaves your possession, weapon surge immediately ends.</p>\n<p>@Compendium[pf2e.spell-effects.Spell Effect: Weapon Surge]{Spell Effect: Weapon Surge}</p>\n<p>@Compendium[pf2e.spell-effects.Spell Effect: Weapon Surge (Major Striking)]{Spell Effect: Weapon Surge (Major Striking)}</p>"
        },
        "duration": {
            "value": ""
        },
        "hasCounteractCheck": {
            "value": false
        },
        "level": {
            "value": 1
        },
        "location": {
            "value": ""
        },
        "materials": {
            "value": ""
        },
        "prepared": {
            "value": ""
        },
        "primarycheck": {
            "value": ""
        },
        "range": {
            "value": "touch"
        },
        "rules": [],
        "save": {
            "basic": "",
            "value": ""
        },
        "scaling": {
            "formula": "",
            "mode": "none"
        },
        "school": {
            "value": "evocation"
        },
        "secondarycasters": {
            "value": ""
        },
        "secondarycheck": {
            "value": ""
        },
        "source": {
            "value": ""
        },
        "spellType": {
            "value": "utility"
        },
        "sustained": {
            "value": false
        },
        "target": {
            "value": "1 weapon you're wielding"
        },
        "time": {
            "value": "1"
        },
        "traditions": {
            "value": []
        },
        "traits": {
            "custom": "",
            "rarity": {
                "value": "uncommon"
            },
            "value": [
                "cleric",
                "evocation"
            ]
        }
    },
    "effects": [],
    "flags": {},
    "img": "systems/pf2e/icons/spells/weapon-surge.webp",
    "name": "Weapon Surge",
    "permission": {
        "default": 0
    },
    "type": "spell"
}
