{
    "_id": "6dDtGIUerazSHIOu",
    "data": {
        "ability": {
            "value": ""
        },
        "area": {
            "areaType": "",
            "value": null
        },
        "areasize": {
            "value": ""
        },
        "category": {
            "value": "spell"
        },
        "components": {
            "value": "material, somatic, verbal"
        },
        "cost": {
            "value": ""
        },
        "damage": {
            "applyMod": false,
            "value": ""
        },
        "damageType": {
            "value": ""
        },
        "description": {
            "chat": "",
            "unidentified": "",
            "value": "<p>You state a wish, making your greatest desire come true. A wish spell can produce any one of the following effects.</p>\n<ul>\n<li>Duplicate any arcane spell of 9th level or lower.</li>\n<li>Duplicate any non-arcane spell of 7th level or lower.</li>\n<li>Produce any effect whose power level is in line with the above effects.</li>\n<li>Reverse certain effects that refer to the wish spell.</li>\n</ul>\n<p>The GM might allow you to try using wish to produce greater effects than these, but doing so might be dangerous or the spell might have only a partial effect.</p>"
        },
        "duration": {
            "value": ""
        },
        "hasCounteractCheck": {
            "value": false
        },
        "level": {
            "value": 10
        },
        "location": {
            "value": ""
        },
        "materials": {
            "value": ""
        },
        "prepared": {
            "value": ""
        },
        "primarycheck": {
            "value": ""
        },
        "range": {
            "value": ""
        },
        "rules": [],
        "save": {
            "basic": "",
            "value": ""
        },
        "scaling": {
            "formula": "",
            "mode": "none"
        },
        "school": {
            "value": "divination"
        },
        "secondarycasters": {
            "value": ""
        },
        "secondarycheck": {
            "value": ""
        },
        "source": {
            "value": ""
        },
        "spellType": {
            "value": "utility"
        },
        "sustained": {
            "value": false
        },
        "target": {
            "value": ""
        },
        "time": {
            "value": "3"
        },
        "traditions": {
            "value": [
                "arcane"
            ]
        },
        "traits": {
            "custom": "",
            "rarity": {
                "value": "common"
            },
            "value": [
                "divination"
            ]
        }
    },
    "effects": [],
    "flags": {},
    "img": "systems/pf2e/icons/spells/wish.webp",
    "name": "Wish",
    "permission": {
        "default": 0
    },
    "type": "spell"
}
