{
    "_id": "LXXodovLOERAGqWj",
    "data": {
        "attributes": {
            "ac": {
                "value": 10
            },
            "hardness": 5,
            "hasHealth": true,
            "hp": {
                "details": "",
                "max": 1,
                "temp": 0,
                "tempmax": 0,
                "value": 1
            },
            "stealth": {
                "details": "(trained)",
                "value": 15
            }
        },
        "creatureType": "",
        "customModifiers": {},
        "details": {
            "description": "The floorboards here are rotting and soft, giving way and dropping anyone above into the hole below.",
            "disable": "Crafting DC 16 (trained) to reinforce the compromised floorboards.",
            "isComplex": false,
            "level": 0,
            "reset": "",
            "routine": ""
        },
        "flavourText": "",
        "recallKnowledgeText": "",
        "saves": {
            "fortitude": {
                "rank": 0,
                "saveDetail": "",
                "value": 1
            },
            "reflex": {
                "rank": 0,
                "saveDetail": "",
                "value": 1
            },
            "will": {
                "rank": 0,
                "saveDetail": "",
                "value": 0
            }
        },
        "schema": {
            "version": {
                "value": ""
            }
        },
        "sidebarText": "",
        "source": {
            "value": ""
        },
        "statusEffects": [],
        "traits": {
            "ci": [],
            "di": {
                "custom": "",
                "selected": {},
                "value": [
                    "critical-hits",
                    "object-immunities",
                    "precision"
                ]
            },
            "dr": [],
            "dv": [],
            "rarity": {
                "value": "common"
            },
            "size": {
                "value": "med"
            },
            "traits": {
                "custom": "",
                "value": [
                    "mechanical"
                ]
            }
        }
    },
    "effects": [],
    "flags": {},
    "img": "systems/pf2e/icons/default-icons/hazard.svg",
    "items": [
        {
            "_id": "MQ3CKYIdF6zrMg0x",
            "data": {
                "actionCategory": {
                    "value": ""
                },
                "actionType": {
                    "value": "reaction"
                },
                "actions": {
                    "value": ""
                },
                "description": {
                    "chat": "",
                    "unidentified": "",
                    "value": "<p><strong>Trigger</strong> A creature walks onto any square containing the sodden floorboards. <strong>Effect</strong> All squares with floorboards give way. Each creature in any of the marked squares must attempt a <span data-pf2-saving-throw=\"reflex\" data-pf2-dc=\"18\" data-pf2-label=\"Crumble DC\" data-pf2-show-dc=\"gm\">Reflex</span> save. <strong>Success</strong> The creature moves to the nearest safe square and avoids falling in. <strong>Failure</strong> The creature falls 10 feet, takes 5 bludgeoning damage as a result of the fall, and is prone in the hole.</p>"
                },
                "requirements": {
                    "value": ""
                },
                "rules": [],
                "slug": null,
                "source": {
                    "value": ""
                },
                "traits": {
                    "custom": "",
                    "rarity": {
                        "value": "common"
                    },
                    "value": []
                },
                "trigger": {
                    "value": ""
                },
                "usage": {
                    "value": "held-in-one-hand"
                },
                "weapon": {
                    "value": ""
                }
            },
            "effects": [],
            "flags": {},
            "img": "systems/pf2e/icons/actions/Reaction.webp",
            "name": "Crumble",
            "sort": 100000,
            "type": "action"
        }
    ],
    "name": "Sodden Floor",
    "permission": {
        "default": 0
    },
    "token": {
        "actorId": "LXXodovLOERAGqWj",
        "actorLink": false,
        "bar1": {
            "attribute": "attributes.hp"
        },
        "bar2": {
            "attribute": ""
        },
        "brightLight": 0,
        "brightSight": 0,
        "dimLight": 0,
        "dimSight": 0,
        "displayBars": 20,
        "displayName": 20,
        "disposition": 0,
        "flags": {
            "perfect-vision": {
                "monoVisionColor": "",
                "visionRules": "default"
            }
        },
        "height": 1,
        "img": "systems/pf2e/icons/default-icons/hazard.svg",
        "lightAlpha": 1,
        "lightAngle": 360,
        "lightAnimation": {
            "intensity": 5,
            "speed": 5,
            "type": ""
        },
        "lightColor": "",
        "lockRotation": false,
        "mirrorX": false,
        "mirrorY": false,
        "name": "Sodden Floor",
        "randomImg": false,
        "rotation": 0,
        "scale": 1,
        "sightAngle": 360,
        "tint": "",
        "vision": false,
        "width": 1
    },
    "type": "hazard"
}
